headers: array (
  'Host' => 'localhost',
  'Connection' => 'keep-alive',
  'Cache-Control' => 'max-age=0',
  'Upgrade-Insecure-Requests' => '1',
  'User-Agent' => 'Mozilla/5.0 (Windows NT 10.0; Win64; x64) AppleWebKit/537.36 (KHTML, like Gecko) Chrome/72.0.3626.121 Safari/537.36',
  'Accept' => 'text/html,application/xhtml+xml,application/xml;q=0.9,image/webp,image/apng,*/*;q=0.8',
  'Accept-Encoding' => 'gzip, deflate, br',
  'Accept-Language' => 'pt-BR,pt;q=0.9,en-US;q=0.8,en;q=0.7',
  'Cookie' => 'csrftoken=m78Rie3qpwPxCIlwlUp3ShcC5xv4SqGNs9isRwJx8plbiaoaYwMytpfHranos3sC; _ga=GA1.1.723714698.1548028733; _xsrf=2|691b5b36|7d37e7f220fbd97171d3120cbe12ebe1|1549819917; username-localhost-8888="2|1:0|10:1552096900|23:username-localhost-8888|44:MTRjOTZkYjU1NWYyNDdmMzk2OTM5N2VkZDk3OThlZTc=|d5f0e4a7b2c412a33e9f1e6dc08443456c6dffcfc629cbcc128ed904a894502d"',
)
X-WC-Webhook-Signature: 
hashHmac: MDmAwobVUyp832baMsNbC93ZkfnwToWGaoULnMM+gGw=
assinatura ok? false
json: NULL
