Funcao= Buscar_id_wooAPI : customers , Status= erro;
Funcao= Buscar_id_wooAPI : Produtos , Status= erro;
Funcao= Buscar_id_wooAPI : products , Status= erro;
Funcao= Buscar_id_wooAPI : products , Status= erro;
Funcao= Buscar_id_wooAPI : products , Status= erro;
Funcao= Buscar_id_wooAPI : products , Status= erro;
Funcao= Inserir_novo_produto_wooAPI , Status= erro: não foi possível adiconar as taxonomias do produto;
Funcao= Inserir_novo_produto_wooAPI , Status= erro: não foi possível adiconar as taxonomias do produtoObs= o produto foi inserido sem as taxonomias!;
Funcao= Inserir_novo_produto_wooAPI , Status= erro: não foi possível adiconar as taxonomias do produto , Obs= o produto foi inserido sem as taxonomias!;
Funcao= Buscar_produto_atributos_wooAPI , Status= erro , Obs= ;
Funcao= Inserir_novo_produto_wooAPI , Status= erro: não foi possível adiconar as taxonomias do produto , Obs= o produto foi inserido sem as taxonomias!;
Funcao= Inserir_wooAPI : products/174 , Status= erro , Obs= ;
Funcao= Inserir_wooAPI : products/174 , Status= erro , Obs= ;
Funcao= Inserir_wooAPI : products/174 , Status= Automattic\WooCommerce\HttpClient\HttpClientException: Error: Invalid parameter(s): attributes [rest_invalid_param] in C:\xampp\htdocs\seox-wocomerceapi-policorp\projeto\functions\vendor\automattic\woocommerce\src\WooCommerce\HttpClient\HttpClient.php:350
Stack trace:
#0 C:\xampp\htdocs\seox-wocomerceapi-policorp\projeto\functions\vendor\automattic\woocommerce\src\WooCommerce\HttpClient\HttpClient.php(386): Automattic\WooCommerce\HttpClient\HttpClient->lookForErrors(Object(stdClass))
#1 C:\xampp\htdocs\seox-wocomerceapi-policorp\projeto\functions\vendor\automattic\woocommerce\src\WooCommerce\HttpClient\HttpClient.php(422): Automattic\WooCommerce\HttpClient\HttpClient->processResponse()
#2 C:\xampp\htdocs\seox-wocomerceapi-policorp\projeto\functions\vendor\automattic\woocommerce\src\WooCommerce\Client.php(56): Automattic\WooCommerce\HttpClient\HttpClient->request('products/174', 'POST', Array)
#3 C:\xampp\htdocs\seox-wocomerceapi-policorp\projeto\functions\functions.php(20): Automattic\WooCommerce\Client->post('products/174', Array)
#4 C:\xampp\htdocs\seox-wocomerceapi-policorp\projeto\functions\functions.php(146): Inserir_wooAPI('products/174', Array)
#5 C:\xampp\htdocs\seox-wocomerceapi-policorp\projeto\index.php(99): Inserir_atributos_em_um_produto_wooAPI(174, 1, Array)
#6 {main} , Obs= ;
Funcao= Buscar_id_wooAPI : product , Status= erro , Obs= ;
Funcao= Buscar_id_wooAPI : product , Status= erro , Obs= ;
Funcao= Buscar_id_wooAPI : product , Status= erro , Obs= ;
Funcao= Buscar_id_wooAPI : product , Status= erro , Obs= ;
Funcao= Buscar_id_wooAPI : product , Status= erro , Obs= ;
Funcao= Buscar_id_wooAPI : product , Status= erro , Obs= ;
Funcao= Buscar_id_wooAPI : product , Status= erro , Obs= ;
Funcao= Buscar_id_wooAPI : product , Status= erro , Obs= ;
Funcao= Buscar_id_wooAPI : product , Status= erro , Obs= ;
